%YAML 1.1
%TAG !u! tag:unity3d.com,2011:
--- !u!29 &1
OcclusionCullingSettings:
  m_ObjectHideFlags: 0
  serializedVersion: 2
  m_OcclusionBakeSettings:
    smallestOccluder: 5
    smallestHole: 0.25
    backfaceThreshold: 100
  m_SceneGUID: 00000000000000000000000000000000
  m_OcclusionCullingData: {fileID: 0}
--- !u!104 &2
RenderSettings:
  m_ObjectHideFlags: 0
  serializedVersion: 9
  m_Fog: 0
  m_FogColor: {r: 0.5, g: 0.5, b: 0.5, a: 1}
  m_FogMode: 3
  m_FogDensity: 0.01
  m_LinearFogStart: 0
  m_LinearFogEnd: 300
  m_AmbientSkyColor: {r: 0.212, g: 0.227, b: 0.259, a: 1}
  m_AmbientEquatorColor: {r: 0.114, g: 0.125, b: 0.133, a: 1}
  m_AmbientGroundColor: {r: 0.047, g: 0.043, b: 0.035, a: 1}
  m_AmbientIntensity: 1
  m_AmbientMode: 0
  m_SubtractiveShadowColor: {r: 0.42, g: 0.478, b: 0.627, a: 1}
  m_SkyboxMaterial: {fileID: 10304, guid: 0000000000000000f000000000000000, type: 0}
  m_HaloStrength: 0.5
  m_FlareStrength: 1
  m_FlareFadeSpeed: 3
  m_HaloTexture: {fileID: 0}
  m_SpotCookie: {fileID: 10001, guid: 0000000000000000e000000000000000, type: 0}
  m_DefaultReflectionMode: 0
  m_DefaultReflectionResolution: 128
  m_ReflectionBounces: 1
  m_ReflectionIntensity: 1
  m_CustomReflection: {fileID: 0}
  m_Sun: {fileID: 705507994}
  m_IndirectSpecularColor: {r: 0.18028378, g: 0.22571412, b: 0.30692285, a: 1}
  m_UseRadianceAmbientProbe: 0
--- !u!157 &3
LightmapSettings:
  m_ObjectHideFlags: 0
  serializedVersion: 12
  m_GIWorkflowMode: 1
  m_GISettings:
    serializedVersion: 2
    m_BounceScale: 1
    m_IndirectOutputScale: 1
    m_AlbedoBoost: 1
    m_EnvironmentLightingMode: 0
    m_EnableBakedLightmaps: 1
    m_EnableRealtimeLightmaps: 0
  m_LightmapEditorSettings:
    serializedVersion: 12
    m_Resolution: 2
    m_BakeResolution: 40
    m_AtlasSize: 1024
    m_AO: 0
    m_AOMaxDistance: 1
    m_CompAOExponent: 1
    m_CompAOExponentDirect: 0
    m_ExtractAmbientOcclusion: 0
    m_Padding: 2
    m_LightmapParameters: {fileID: 0}
    m_LightmapsBakeMode: 1
    m_TextureCompression: 1
    m_FinalGather: 0
    m_FinalGatherFiltering: 1
    m_FinalGatherRayCount: 256
    m_ReflectionCompression: 2
    m_MixedBakeMode: 2
    m_BakeBackend: 1
    m_PVRSampling: 1
    m_PVRDirectSampleCount: 32
    m_PVRSampleCount: 500
    m_PVRBounces: 2
    m_PVREnvironmentSampleCount: 500
    m_PVREnvironmentReferencePointCount: 2048
    m_PVRFilteringMode: 2
    m_PVRDenoiserTypeDirect: 0
    m_PVRDenoiserTypeIndirect: 0
    m_PVRDenoiserTypeAO: 0
    m_PVRFilterTypeDirect: 0
    m_PVRFilterTypeIndirect: 0
    m_PVRFilterTypeAO: 0
    m_PVREnvironmentMIS: 0
    m_PVRCulling: 1
    m_PVRFilteringGaussRadiusDirect: 1
    m_PVRFilteringGaussRadiusIndirect: 5
    m_PVRFilteringGaussRadiusAO: 2
    m_PVRFilteringAtrousPositionSigmaDirect: 0.5
    m_PVRFilteringAtrousPositionSigmaIndirect: 2
    m_PVRFilteringAtrousPositionSigmaAO: 1
    m_ExportTrainingData: 0
    m_TrainingDataDestination: TrainingData
    m_LightProbeSampleCountMultiplier: 4
  m_LightingDataAsset: {fileID: 0}
  m_LightingSettings: {fileID: 0}
--- !u!196 &4
NavMeshSettings:
  serializedVersion: 2
  m_ObjectHideFlags: 0
  m_BuildSettings:
    serializedVersion: 2
    agentTypeID: 0
    agentRadius: 0.5
    agentHeight: 2
    agentSlope: 45
    agentClimb: 0.4
    ledgeDropHeight: 0
    maxJumpAcrossDistance: 0
    minRegionArea: 2
    manualCellSize: 0
    cellSize: 0.16666667
    manualTileSize: 0
    tileSize: 256
    accuratePlacement: 0
    maxJobWorkers: 0
    preserveTilesOutsideBounds: 0
    debug:
      m_Flags: 0
  m_NavMeshData: {fileID: 0}
--- !u!1 &346419525
GameObject:
  m_ObjectHideFlags: 0
  m_CorrespondingSourceObject: {fileID: 0}
  m_PrefabInstance: {fileID: 0}
  m_PrefabAsset: {fileID: 0}
  serializedVersion: 6
  m_Component:
  - component: {fileID: 346419526}
  m_Layer: 5
  m_Name: Product
  m_TagString: Untagged
  m_Icon: {fileID: 0}
  m_NavMeshLayer: 0
  m_StaticEditorFlags: 0
  m_IsActive: 1
--- !u!224 &346419526
RectTransform:
  m_ObjectHideFlags: 0
  m_CorrespondingSourceObject: {fileID: 0}
  m_PrefabInstance: {fileID: 0}
  m_PrefabAsset: {fileID: 0}
  m_GameObject: {fileID: 346419525}
  m_LocalRotation: {x: 0, y: 0, z: 0, w: 1}
  m_LocalPosition: {x: 0, y: 0, z: 0}
  m_LocalScale: {x: 1, y: 1, z: 1}
  m_ConstrainProportionsScale: 0
  m_Children:
  - {fileID: 2091487598}
  - {fileID: 6814740114357892573}
  m_Father: {fileID: 1726938291}
  m_RootOrder: 1
  m_LocalEulerAnglesHint: {x: 0, y: 0, z: 0}
  m_AnchorMin: {x: 0, y: 0}
  m_AnchorMax: {x: 1, y: 1}
  m_AnchoredPosition: {x: 0, y: 0}
  m_SizeDelta: {x: 0, y: 0}
  m_Pivot: {x: 0.5, y: 0.5}
--- !u!1001 &359113467
PrefabInstance:
  m_ObjectHideFlags: 0
  serializedVersion: 2
  m_Modification:
    m_TransformParent: {fileID: 1221141741}
    m_Modifications:
    - target: {fileID: 5577689464726093074, guid: e239843313816374ab29a63af895b4f5, type: 3}
      propertyPath: m_AnchorMax.y
      value: 0
      objectReference: {fileID: 0}
    - target: {fileID: 5577689464726093074, guid: e239843313816374ab29a63af895b4f5, type: 3}
      propertyPath: m_AnchorMin.y
      value: 0
      objectReference: {fileID: 0}
    - target: {fileID: 5577689464726093074, guid: e239843313816374ab29a63af895b4f5, type: 3}
      propertyPath: m_AnchoredPosition.x
      value: 0
      objectReference: {fileID: 0}
    - target: {fileID: 5577689464726093074, guid: e239843313816374ab29a63af895b4f5, type: 3}
      propertyPath: m_AnchoredPosition.y
      value: 0
      objectReference: {fileID: 0}
    - target: {fileID: 5577689464738901175, guid: e239843313816374ab29a63af895b4f5, type: 3}
      propertyPath: m_AnchorMax.y
      value: 0
      objectReference: {fileID: 0}
    - target: {fileID: 5577689464738901175, guid: e239843313816374ab29a63af895b4f5, type: 3}
      propertyPath: m_AnchorMin.y
      value: 0
      objectReference: {fileID: 0}
    - target: {fileID: 5577689464738901175, guid: e239843313816374ab29a63af895b4f5, type: 3}
      propertyPath: m_AnchoredPosition.x
      value: 0
      objectReference: {fileID: 0}
    - target: {fileID: 5577689464738901175, guid: e239843313816374ab29a63af895b4f5, type: 3}
      propertyPath: m_AnchoredPosition.y
      value: 0
      objectReference: {fileID: 0}
    - target: {fileID: 5577689466070816065, guid: e239843313816374ab29a63af895b4f5, type: 3}
      propertyPath: m_Name
      value: ViewCurrency
      objectReference: {fileID: 0}
    - target: {fileID: 5577689466070816078, guid: e239843313816374ab29a63af895b4f5, type: 3}
      propertyPath: m_Pivot.x
      value: 0
      objectReference: {fileID: 0}
    - target: {fileID: 5577689466070816078, guid: e239843313816374ab29a63af895b4f5, type: 3}
      propertyPath: m_Pivot.y
      value: 1
      objectReference: {fileID: 0}
    - target: {fileID: 5577689466070816078, guid: e239843313816374ab29a63af895b4f5, type: 3}
      propertyPath: m_RootOrder
      value: 0
      objectReference: {fileID: 0}
    - target: {fileID: 5577689466070816078, guid: e239843313816374ab29a63af895b4f5, type: 3}
      propertyPath: m_AnchorMax.x
      value: 0
      objectReference: {fileID: 0}
    - target: {fileID: 5577689466070816078, guid: e239843313816374ab29a63af895b4f5, type: 3}
      propertyPath: m_AnchorMax.y
      value: 0
      objectReference: {fileID: 0}
    - target: {fileID: 5577689466070816078, guid: e239843313816374ab29a63af895b4f5, type: 3}
      propertyPath: m_AnchorMin.x
      value: 0
      objectReference: {fileID: 0}
    - target: {fileID: 5577689466070816078, guid: e239843313816374ab29a63af895b4f5, type: 3}
      propertyPath: m_AnchorMin.y
      value: 0
      objectReference: {fileID: 0}
    - target: {fileID: 5577689466070816078, guid: e239843313816374ab29a63af895b4f5, type: 3}
      propertyPath: m_SizeDelta.x
      value: 250
      objectReference: {fileID: 0}
    - target: {fileID: 5577689466070816078, guid: e239843313816374ab29a63af895b4f5, type: 3}
      propertyPath: m_SizeDelta.y
      value: 90
      objectReference: {fileID: 0}
    - target: {fileID: 5577689466070816078, guid: e239843313816374ab29a63af895b4f5, type: 3}
      propertyPath: m_LocalPosition.x
      value: 0
      objectReference: {fileID: 0}
    - target: {fileID: 5577689466070816078, guid: e239843313816374ab29a63af895b4f5, type: 3}
      propertyPath: m_LocalPosition.y
      value: 0
      objectReference: {fileID: 0}
    - target: {fileID: 5577689466070816078, guid: e239843313816374ab29a63af895b4f5, type: 3}
      propertyPath: m_LocalPosition.z
      value: 0
      objectReference: {fileID: 0}
    - target: {fileID: 5577689466070816078, guid: e239843313816374ab29a63af895b4f5, type: 3}
      propertyPath: m_LocalRotation.w
      value: 1
      objectReference: {fileID: 0}
    - target: {fileID: 5577689466070816078, guid: e239843313816374ab29a63af895b4f5, type: 3}
      propertyPath: m_LocalRotation.x
      value: -0
      objectReference: {fileID: 0}
    - target: {fileID: 5577689466070816078, guid: e239843313816374ab29a63af895b4f5, type: 3}
      propertyPath: m_LocalRotation.y
      value: -0
      objectReference: {fileID: 0}
    - target: {fileID: 5577689466070816078, guid: e239843313816374ab29a63af895b4f5, type: 3}
      propertyPath: m_LocalRotation.z
      value: -0
      objectReference: {fileID: 0}
    - target: {fileID: 5577689466070816078, guid: e239843313816374ab29a63af895b4f5, type: 3}
      propertyPath: m_AnchoredPosition.x
      value: 0
      objectReference: {fileID: 0}
    - target: {fileID: 5577689466070816078, guid: e239843313816374ab29a63af895b4f5, type: 3}
      propertyPath: m_AnchoredPosition.y
      value: 0
      objectReference: {fileID: 0}
    - target: {fileID: 5577689466070816078, guid: e239843313816374ab29a63af895b4f5, type: 3}
      propertyPath: m_LocalEulerAnglesHint.x
      value: 0
      objectReference: {fileID: 0}
    - target: {fileID: 5577689466070816078, guid: e239843313816374ab29a63af895b4f5, type: 3}
      propertyPath: m_LocalEulerAnglesHint.y
      value: 0
      objectReference: {fileID: 0}
    - target: {fileID: 5577689466070816078, guid: e239843313816374ab29a63af895b4f5, type: 3}
      propertyPath: m_LocalEulerAnglesHint.z
      value: 0
      objectReference: {fileID: 0}
    m_RemovedComponents: []
  m_SourcePrefab: {fileID: 100100000, guid: e239843313816374ab29a63af895b4f5, type: 3}
--- !u!1 &441220347
GameObject:
  m_ObjectHideFlags: 0
  m_CorrespondingSourceObject: {fileID: 0}
  m_PrefabInstance: {fileID: 0}
  m_PrefabAsset: {fileID: 0}
  serializedVersion: 6
  m_Component:
  - component: {fileID: 441220349}
  - component: {fileID: 441220348}
  - component: {fileID: 441220350}
  m_Layer: 0
  m_Name: SceneContext
  m_TagString: Untagged
  m_Icon: {fileID: 0}
  m_NavMeshLayer: 0
  m_StaticEditorFlags: 0
  m_IsActive: 1
--- !u!114 &441220348
MonoBehaviour:
  m_ObjectHideFlags: 0
  m_CorrespondingSourceObject: {fileID: 0}
  m_PrefabInstance: {fileID: 0}
  m_PrefabAsset: {fileID: 0}
  m_GameObject: {fileID: 441220347}
  m_Enabled: 1
  m_EditorHideFlags: 0
  m_Script: {fileID: 11500000, guid: 89715ad69b973a14899afa2c6730b30b, type: 3}
  m_Name: 
  m_EditorClassIdentifier: 
  _scriptableObjectInstallers: []
  _monoInstallers:
  - {fileID: 441220350}
  _installerPrefabs: []
  _autoRun: 1
  OnPreInstall:
    m_PersistentCalls:
      m_Calls: []
  OnPostInstall:
    m_PersistentCalls:
      m_Calls: []
  OnPreResolve:
    m_PersistentCalls:
      m_Calls: []
  OnPostResolve:
    m_PersistentCalls:
      m_Calls: []
  _parentNewObjectsUnderSceneContext: 0
  _contractNames: []
  _parentContractNames: []
--- !u!4 &441220349
Transform:
  m_ObjectHideFlags: 0
  m_CorrespondingSourceObject: {fileID: 0}
  m_PrefabInstance: {fileID: 0}
  m_PrefabAsset: {fileID: 0}
  m_GameObject: {fileID: 441220347}
  m_LocalRotation: {x: 0, y: 0, z: 0, w: 1}
  m_LocalPosition: {x: 0, y: 0, z: 0}
  m_LocalScale: {x: 1, y: 1, z: 1}
  m_ConstrainProportionsScale: 0
  m_Children: []
  m_Father: {fileID: 0}
  m_RootOrder: 2
  m_LocalEulerAnglesHint: {x: 0, y: 0, z: 0}
--- !u!114 &441220350
MonoBehaviour:
  m_ObjectHideFlags: 0
  m_CorrespondingSourceObject: {fileID: 0}
  m_PrefabInstance: {fileID: 0}
  m_PrefabAsset: {fileID: 0}
  m_GameObject: {fileID: 441220347}
  m_Enabled: 1
  m_EditorHideFlags: 0
  m_Script: {fileID: 11500000, guid: bc2439c564841b34d86f9c15a44d2c01, type: 3}
  m_Name: 
  m_EditorClassIdentifier: 
--- !u!1 &705507993
GameObject:
  m_ObjectHideFlags: 0
  m_CorrespondingSourceObject: {fileID: 0}
  m_PrefabInstance: {fileID: 0}
  m_PrefabAsset: {fileID: 0}
  serializedVersion: 6
  m_Component:
  - component: {fileID: 705507995}
  - component: {fileID: 705507994}
  m_Layer: 0
  m_Name: Directional Light
  m_TagString: Untagged
  m_Icon: {fileID: 0}
  m_NavMeshLayer: 0
  m_StaticEditorFlags: 0
  m_IsActive: 1
--- !u!108 &705507994
Light:
  m_ObjectHideFlags: 0
  m_CorrespondingSourceObject: {fileID: 0}
  m_PrefabInstance: {fileID: 0}
  m_PrefabAsset: {fileID: 0}
  m_GameObject: {fileID: 705507993}
  m_Enabled: 1
  serializedVersion: 10
  m_Type: 1
  m_Shape: 0
  m_Color: {r: 1, g: 0.95686275, b: 0.8392157, a: 1}
  m_Intensity: 1
  m_Range: 10
  m_SpotAngle: 30
  m_InnerSpotAngle: 21.80208
  m_CookieSize: 10
  m_Shadows:
    m_Type: 2
    m_Resolution: -1
    m_CustomResolution: -1
    m_Strength: 1
    m_Bias: 0.05
    m_NormalBias: 0.4
    m_NearPlane: 0.2
    m_CullingMatrixOverride:
      e00: 1
      e01: 0
      e02: 0
      e03: 0
      e10: 0
      e11: 1
      e12: 0
      e13: 0
      e20: 0
      e21: 0
      e22: 1
      e23: 0
      e30: 0
      e31: 0
      e32: 0
      e33: 1
    m_UseCullingMatrixOverride: 0
  m_Cookie: {fileID: 0}
  m_DrawHalo: 0
  m_Flare: {fileID: 0}
  m_RenderMode: 0
  m_CullingMask:
    serializedVersion: 2
    m_Bits: 4294967295
  m_RenderingLayerMask: 1
  m_Lightmapping: 1
  m_LightShadowCasterMode: 0
  m_AreaSize: {x: 1, y: 1}
  m_BounceIntensity: 1
  m_ColorTemperature: 6570
  m_UseColorTemperature: 0
  m_BoundingSphereOverride: {x: 0, y: 0, z: 0, w: 0}
  m_UseBoundingSphereOverride: 0
  m_UseViewFrustumForShadowCasterCull: 1
  m_ShadowRadius: 0
  m_ShadowAngle: 0
--- !u!4 &705507995
Transform:
  m_ObjectHideFlags: 0
  m_CorrespondingSourceObject: {fileID: 0}
  m_PrefabInstance: {fileID: 0}
  m_PrefabAsset: {fileID: 0}
  m_GameObject: {fileID: 705507993}
  m_LocalRotation: {x: 0.40821788, y: -0.23456968, z: 0.10938163, w: 0.8754261}
  m_LocalPosition: {x: 0, y: 3, z: 0}
  m_LocalScale: {x: 1, y: 1, z: 1}
  m_ConstrainProportionsScale: 0
  m_Children: []
  m_Father: {fileID: 0}
  m_RootOrder: 1
  m_LocalEulerAnglesHint: {x: 50, y: -30, z: 0}
--- !u!1001 &762934015
PrefabInstance:
  m_ObjectHideFlags: 0
  serializedVersion: 2
  m_Modification:
    m_TransformParent: {fileID: 1221141741}
    m_Modifications:
    - target: {fileID: 5577689464726093074, guid: e239843313816374ab29a63af895b4f5, type: 3}
      propertyPath: m_AnchorMax.y
      value: 0
      objectReference: {fileID: 0}
    - target: {fileID: 5577689464726093074, guid: e239843313816374ab29a63af895b4f5, type: 3}
      propertyPath: m_AnchorMin.y
      value: 0
      objectReference: {fileID: 0}
    - target: {fileID: 5577689464726093074, guid: e239843313816374ab29a63af895b4f5, type: 3}
      propertyPath: m_AnchoredPosition.x
      value: 0
      objectReference: {fileID: 0}
    - target: {fileID: 5577689464726093074, guid: e239843313816374ab29a63af895b4f5, type: 3}
      propertyPath: m_AnchoredPosition.y
      value: 0
      objectReference: {fileID: 0}
    - target: {fileID: 5577689464726093075, guid: e239843313816374ab29a63af895b4f5, type: 3}
      propertyPath: m_Sprite
      value: 
      objectReference: {fileID: 21300000, guid: 0a1e41b1ab503e446915d62a2752eb79, type: 3}
    - target: {fileID: 5577689464738901175, guid: e239843313816374ab29a63af895b4f5, type: 3}
      propertyPath: m_AnchorMax.y
      value: 0
      objectReference: {fileID: 0}
    - target: {fileID: 5577689464738901175, guid: e239843313816374ab29a63af895b4f5, type: 3}
      propertyPath: m_AnchorMin.y
      value: 0
      objectReference: {fileID: 0}
    - target: {fileID: 5577689464738901175, guid: e239843313816374ab29a63af895b4f5, type: 3}
      propertyPath: m_AnchoredPosition.x
      value: 0
      objectReference: {fileID: 0}
    - target: {fileID: 5577689464738901175, guid: e239843313816374ab29a63af895b4f5, type: 3}
      propertyPath: m_AnchoredPosition.y
      value: 0
      objectReference: {fileID: 0}
    - target: {fileID: 5577689466070816065, guid: e239843313816374ab29a63af895b4f5, type: 3}
      propertyPath: m_Name
      value: ViewCurrency (1)
      objectReference: {fileID: 0}
    - target: {fileID: 5577689466070816078, guid: e239843313816374ab29a63af895b4f5, type: 3}
      propertyPath: m_Pivot.x
      value: 0
      objectReference: {fileID: 0}
    - target: {fileID: 5577689466070816078, guid: e239843313816374ab29a63af895b4f5, type: 3}
      propertyPath: m_Pivot.y
      value: 1
      objectReference: {fileID: 0}
    - target: {fileID: 5577689466070816078, guid: e239843313816374ab29a63af895b4f5, type: 3}
      propertyPath: m_RootOrder
      value: 1
      objectReference: {fileID: 0}
    - target: {fileID: 5577689466070816078, guid: e239843313816374ab29a63af895b4f5, type: 3}
      propertyPath: m_AnchorMax.x
      value: 0
      objectReference: {fileID: 0}
    - target: {fileID: 5577689466070816078, guid: e239843313816374ab29a63af895b4f5, type: 3}
      propertyPath: m_AnchorMax.y
      value: 0
      objectReference: {fileID: 0}
    - target: {fileID: 5577689466070816078, guid: e239843313816374ab29a63af895b4f5, type: 3}
      propertyPath: m_AnchorMin.x
      value: 0
      objectReference: {fileID: 0}
    - target: {fileID: 5577689466070816078, guid: e239843313816374ab29a63af895b4f5, type: 3}
      propertyPath: m_AnchorMin.y
      value: 0
      objectReference: {fileID: 0}
    - target: {fileID: 5577689466070816078, guid: e239843313816374ab29a63af895b4f5, type: 3}
      propertyPath: m_SizeDelta.x
      value: 250
      objectReference: {fileID: 0}
    - target: {fileID: 5577689466070816078, guid: e239843313816374ab29a63af895b4f5, type: 3}
      propertyPath: m_SizeDelta.y
      value: 90
      objectReference: {fileID: 0}
    - target: {fileID: 5577689466070816078, guid: e239843313816374ab29a63af895b4f5, type: 3}
      propertyPath: m_LocalPosition.x
      value: 0
      objectReference: {fileID: 0}
    - target: {fileID: 5577689466070816078, guid: e239843313816374ab29a63af895b4f5, type: 3}
      propertyPath: m_LocalPosition.y
      value: 0
      objectReference: {fileID: 0}
    - target: {fileID: 5577689466070816078, guid: e239843313816374ab29a63af895b4f5, type: 3}
      propertyPath: m_LocalPosition.z
      value: 0
      objectReference: {fileID: 0}
    - target: {fileID: 5577689466070816078, guid: e239843313816374ab29a63af895b4f5, type: 3}
      propertyPath: m_LocalRotation.w
      value: 1
      objectReference: {fileID: 0}
    - target: {fileID: 5577689466070816078, guid: e239843313816374ab29a63af895b4f5, type: 3}
      propertyPath: m_LocalRotation.x
      value: -0
      objectReference: {fileID: 0}
    - target: {fileID: 5577689466070816078, guid: e239843313816374ab29a63af895b4f5, type: 3}
      propertyPath: m_LocalRotation.y
      value: -0
      objectReference: {fileID: 0}
    - target: {fileID: 5577689466070816078, guid: e239843313816374ab29a63af895b4f5, type: 3}
      propertyPath: m_LocalRotation.z
      value: -0
      objectReference: {fileID: 0}
    - target: {fileID: 5577689466070816078, guid: e239843313816374ab29a63af895b4f5, type: 3}
      propertyPath: m_AnchoredPosition.x
      value: 0
      objectReference: {fileID: 0}
    - target: {fileID: 5577689466070816078, guid: e239843313816374ab29a63af895b4f5, type: 3}
      propertyPath: m_AnchoredPosition.y
      value: 0
      objectReference: {fileID: 0}
    - target: {fileID: 5577689466070816078, guid: e239843313816374ab29a63af895b4f5, type: 3}
      propertyPath: m_LocalEulerAnglesHint.x
      value: 0
      objectReference: {fileID: 0}
    - target: {fileID: 5577689466070816078, guid: e239843313816374ab29a63af895b4f5, type: 3}
      propertyPath: m_LocalEulerAnglesHint.y
      value: 0
      objectReference: {fileID: 0}
    - target: {fileID: 5577689466070816078, guid: e239843313816374ab29a63af895b4f5, type: 3}
      propertyPath: m_LocalEulerAnglesHint.z
      value: 0
      objectReference: {fileID: 0}
    - target: {fileID: 8514365132210893952, guid: e239843313816374ab29a63af895b4f5, type: 3}
      propertyPath: _rillRate
      value: 0.3
      objectReference: {fileID: 0}
    - target: {fileID: 8514365132210893952, guid: e239843313816374ab29a63af895b4f5, type: 3}
      propertyPath: _endScale.Scale.x
      value: 1
      objectReference: {fileID: 0}
    - target: {fileID: 8514365132210893952, guid: e239843313816374ab29a63af895b4f5, type: 3}
      propertyPath: _endScale.Scale.y
      value: 1
      objectReference: {fileID: 0}
    - target: {fileID: 8514365132210893952, guid: e239843313816374ab29a63af895b4f5, type: 3}
      propertyPath: _endScale.Scale.z
      value: 1
      objectReference: {fileID: 0}
    - target: {fileID: 8514365132210893952, guid: e239843313816374ab29a63af895b4f5, type: 3}
      propertyPath: _endScale.RillRate
      value: 0.1
      objectReference: {fileID: 0}
    - target: {fileID: 8514365132210893952, guid: e239843313816374ab29a63af895b4f5, type: 3}
      propertyPath: _startScale.Scale.x
      value: 1.3
      objectReference: {fileID: 0}
    - target: {fileID: 8514365132210893952, guid: e239843313816374ab29a63af895b4f5, type: 3}
      propertyPath: _startScale.Scale.y
      value: 1.3
      objectReference: {fileID: 0}
    - target: {fileID: 8514365132210893952, guid: e239843313816374ab29a63af895b4f5, type: 3}
      propertyPath: _startScale.Scale.z
      value: 1.3
      objectReference: {fileID: 0}
    - target: {fileID: 8514365132210893952, guid: e239843313816374ab29a63af895b4f5, type: 3}
      propertyPath: _startScale.RillRate
      value: 0.3
      objectReference: {fileID: 0}
    m_RemovedComponents: []
  m_SourcePrefab: {fileID: 100100000, guid: e239843313816374ab29a63af895b4f5, type: 3}
--- !u!1 &963194225
GameObject:
  m_ObjectHideFlags: 0
  m_CorrespondingSourceObject: {fileID: 0}
  m_PrefabInstance: {fileID: 0}
  m_PrefabAsset: {fileID: 0}
  serializedVersion: 6
  m_Component:
  - component: {fileID: 963194228}
  - component: {fileID: 963194227}
  - component: {fileID: 963194226}
  m_Layer: 0
  m_Name: Main Camera
  m_TagString: MainCamera
  m_Icon: {fileID: 0}
  m_NavMeshLayer: 0
  m_StaticEditorFlags: 0
  m_IsActive: 1
--- !u!81 &963194226
AudioListener:
  m_ObjectHideFlags: 0
  m_CorrespondingSourceObject: {fileID: 0}
  m_PrefabInstance: {fileID: 0}
  m_PrefabAsset: {fileID: 0}
  m_GameObject: {fileID: 963194225}
  m_Enabled: 1
--- !u!20 &963194227
Camera:
  m_ObjectHideFlags: 0
  m_CorrespondingSourceObject: {fileID: 0}
  m_PrefabInstance: {fileID: 0}
  m_PrefabAsset: {fileID: 0}
  m_GameObject: {fileID: 963194225}
  m_Enabled: 1
  serializedVersion: 2
  m_ClearFlags: 1
  m_BackGroundColor: {r: 0.19215687, g: 0.3019608, b: 0.4745098, a: 0}
  m_projectionMatrixMode: 1
  m_GateFitMode: 2
  m_FOVAxisMode: 0
  m_SensorSize: {x: 36, y: 24}
  m_LensShift: {x: 0, y: 0}
  m_FocalLength: 50
  m_NormalizedViewPortRect:
    serializedVersion: 2
    x: 0
    y: 0
    width: 1
    height: 1
  near clip plane: 0.3
  far clip plane: 1000
  field of view: 60
  orthographic: 0
  orthographic size: 5
  m_Depth: -1
  m_CullingMask:
    serializedVersion: 2
    m_Bits: 4294967295
  m_RenderingPath: -1
  m_TargetTexture: {fileID: 0}
  m_TargetDisplay: 0
  m_TargetEye: 3
  m_HDR: 1
  m_AllowMSAA: 1
  m_AllowDynamicResolution: 0
  m_ForceIntoRT: 0
  m_OcclusionCulling: 1
  m_StereoConvergence: 10
  m_StereoSeparation: 0.022
--- !u!4 &963194228
Transform:
  m_ObjectHideFlags: 0
  m_CorrespondingSourceObject: {fileID: 0}
  m_PrefabInstance: {fileID: 0}
  m_PrefabAsset: {fileID: 0}
  m_GameObject: {fileID: 963194225}
  m_LocalRotation: {x: 0, y: 0, z: 0, w: 1}
  m_LocalPosition: {x: 0, y: 1, z: -10}
  m_LocalScale: {x: 1, y: 1, z: 1}
  m_ConstrainProportionsScale: 0
  m_Children: []
  m_Father: {fileID: 0}
  m_RootOrder: 0
  m_LocalEulerAnglesHint: {x: 0, y: 0, z: 0}
--- !u!1 &1221141740
GameObject:
  m_ObjectHideFlags: 0
  m_CorrespondingSourceObject: {fileID: 0}
  m_PrefabInstance: {fileID: 0}
  m_PrefabAsset: {fileID: 0}
  serializedVersion: 6
  m_Component:
  - component: {fileID: 1221141741}
  - component: {fileID: 1221141742}
  - component: {fileID: 1221141743}
  m_Layer: 5
  m_Name: Currency
  m_TagString: Untagged
  m_Icon: {fileID: 0}
  m_NavMeshLayer: 0
  m_StaticEditorFlags: 0
  m_IsActive: 1
--- !u!224 &1221141741
RectTransform:
  m_ObjectHideFlags: 0
  m_CorrespondingSourceObject: {fileID: 0}
  m_PrefabInstance: {fileID: 0}
  m_PrefabAsset: {fileID: 0}
  m_GameObject: {fileID: 1221141740}
  m_LocalRotation: {x: 0, y: 0, z: 0, w: 1}
  m_LocalPosition: {x: 0, y: 0, z: 0}
  m_LocalScale: {x: 1, y: 1, z: 1}
  m_ConstrainProportionsScale: 0
  m_Children:
  - {fileID: 2099637021}
  - {fileID: 1499124738}
  m_Father: {fileID: 1726938291}
  m_RootOrder: 0
  m_LocalEulerAnglesHint: {x: 0, y: 0, z: 0}
  m_AnchorMin: {x: 1, y: 1}
  m_AnchorMax: {x: 1, y: 1}
  m_AnchoredPosition: {x: -130.38216, y: -97.10915}
  m_SizeDelta: {x: 260.7643, y: 194.2183}
  m_Pivot: {x: 0.5, y: 0.5}
--- !u!114 &1221141742
MonoBehaviour:
  m_ObjectHideFlags: 0
  m_CorrespondingSourceObject: {fileID: 0}
  m_PrefabInstance: {fileID: 0}
  m_PrefabAsset: {fileID: 0}
  m_GameObject: {fileID: 1221141740}
  m_Enabled: 1
  m_EditorHideFlags: 0
  m_Script: {fileID: 11500000, guid: f4e3e9627cd641a9966c3610c13d4f57, type: 3}
  m_Name: 
  m_EditorClassIdentifier: 
  _moneyView: {fileID: 2099637024}
  _gemView: {fileID: 1499124739}
--- !u!114 &1221141743
MonoBehaviour:
  m_ObjectHideFlags: 0
  m_CorrespondingSourceObject: {fileID: 0}
  m_PrefabInstance: {fileID: 0}
  m_PrefabAsset: {fileID: 0}
  m_GameObject: {fileID: 1221141740}
  m_Enabled: 1
  m_EditorHideFlags: 0
  m_Script: {fileID: 11500000, guid: 59f8146938fff824cb5fd77236b75775, type: 3}
  m_Name: 
  m_EditorClassIdentifier: 
  m_Padding:
    m_Left: 0
    m_Right: 0
    m_Top: 0
    m_Bottom: 0
  m_ChildAlignment: 0
  m_Spacing: 0
  m_ChildForceExpandWidth: 1
  m_ChildForceExpandHeight: 1
  m_ChildControlWidth: 0
  m_ChildControlHeight: 0
  m_ChildScaleWidth: 0
  m_ChildScaleHeight: 0
  m_ReverseArrangement: 0
--- !u!224 &1499124738 stripped
RectTransform:
  m_CorrespondingSourceObject: {fileID: 5577689466070816078, guid: e239843313816374ab29a63af895b4f5, type: 3}
  m_PrefabInstance: {fileID: 762934015}
  m_PrefabAsset: {fileID: 0}
--- !u!114 &1499124739 stripped
MonoBehaviour:
  m_CorrespondingSourceObject: {fileID: 8514365132210893952, guid: e239843313816374ab29a63af895b4f5, type: 3}
  m_PrefabInstance: {fileID: 762934015}
  m_PrefabAsset: {fileID: 0}
  m_GameObject: {fileID: 0}
  m_Enabled: 1
  m_EditorHideFlags: 0
  m_Script: {fileID: 11500000, guid: 889d910bc7644f1298ad6961208d066d, type: 3}
  m_Name: 
  m_EditorClassIdentifier: 
--- !u!1 &1726938287
GameObject:
  m_ObjectHideFlags: 0
  m_CorrespondingSourceObject: {fileID: 0}
  m_PrefabInstance: {fileID: 0}
  m_PrefabAsset: {fileID: 0}
  serializedVersion: 6
  m_Component:
  - component: {fileID: 1726938291}
  - component: {fileID: 1726938290}
  - component: {fileID: 1726938289}
  - component: {fileID: 1726938288}
  - component: {fileID: 1726938292}
  - component: {fileID: 1726938293}
  m_Layer: 5
  m_Name: Canvas
  m_TagString: Untagged
  m_Icon: {fileID: 0}
  m_NavMeshLayer: 0
  m_StaticEditorFlags: 0
  m_IsActive: 1
--- !u!114 &1726938288
MonoBehaviour:
  m_ObjectHideFlags: 0
  m_CorrespondingSourceObject: {fileID: 0}
  m_PrefabInstance: {fileID: 0}
  m_PrefabAsset: {fileID: 0}
  m_GameObject: {fileID: 1726938287}
  m_Enabled: 1
  m_EditorHideFlags: 0
  m_Script: {fileID: 11500000, guid: dc42784cf147c0c48a680349fa168899, type: 3}
  m_Name: 
  m_EditorClassIdentifier: 
  m_IgnoreReversedGraphics: 1
  m_BlockingObjects: 0
  m_BlockingMask:
    serializedVersion: 2
    m_Bits: 4294967295
--- !u!114 &1726938289
MonoBehaviour:
  m_ObjectHideFlags: 0
  m_CorrespondingSourceObject: {fileID: 0}
  m_PrefabInstance: {fileID: 0}
  m_PrefabAsset: {fileID: 0}
  m_GameObject: {fileID: 1726938287}
  m_Enabled: 1
  m_EditorHideFlags: 0
  m_Script: {fileID: 11500000, guid: 0cd44c1031e13a943bb63640046fad76, type: 3}
  m_Name: 
  m_EditorClassIdentifier: 
  m_UiScaleMode: 0
  m_ReferencePixelsPerUnit: 100
  m_ScaleFactor: 1
  m_ReferenceResolution: {x: 800, y: 600}
  m_ScreenMatchMode: 0
  m_MatchWidthOrHeight: 0
  m_PhysicalUnit: 3
  m_FallbackScreenDPI: 96
  m_DefaultSpriteDPI: 96
  m_DynamicPixelsPerUnit: 1
  m_PresetInfoIsWorld: 0
--- !u!223 &1726938290
Canvas:
  m_ObjectHideFlags: 0
  m_CorrespondingSourceObject: {fileID: 0}
  m_PrefabInstance: {fileID: 0}
  m_PrefabAsset: {fileID: 0}
  m_GameObject: {fileID: 1726938287}
  m_Enabled: 1
  serializedVersion: 3
  m_RenderMode: 0
  m_Camera: {fileID: 0}
  m_PlaneDistance: 100
  m_PixelPerfect: 0
  m_ReceivesEvents: 1
  m_OverrideSorting: 0
  m_OverridePixelPerfect: 0
  m_SortingBucketNormalizedSize: 0
  m_AdditionalShaderChannelsFlag: 25
  m_SortingLayerID: 0
  m_SortingOrder: 0
  m_TargetDisplay: 0
--- !u!224 &1726938291
RectTransform:
  m_ObjectHideFlags: 0
  m_CorrespondingSourceObject: {fileID: 0}
  m_PrefabInstance: {fileID: 0}
  m_PrefabAsset: {fileID: 0}
  m_GameObject: {fileID: 1726938287}
  m_LocalRotation: {x: 0, y: 0, z: 0, w: 1}
  m_LocalPosition: {x: 0, y: 0, z: 0}
  m_LocalScale: {x: 0, y: 0, z: 0}
  m_ConstrainProportionsScale: 0
  m_Children:
  - {fileID: 1221141741}
  - {fileID: 346419526}
  m_Father: {fileID: 0}
  m_RootOrder: 3
  m_LocalEulerAnglesHint: {x: 0, y: 0, z: 0}
  m_AnchorMin: {x: 0, y: 0}
  m_AnchorMax: {x: 0, y: 0}
  m_AnchoredPosition: {x: 0, y: 0}
  m_SizeDelta: {x: 0, y: 0}
  m_Pivot: {x: 0, y: 0}
--- !u!114 &1726938292
MonoBehaviour:
  m_ObjectHideFlags: 0
  m_CorrespondingSourceObject: {fileID: 0}
  m_PrefabInstance: {fileID: 0}
  m_PrefabAsset: {fileID: 0}
  m_GameObject: {fileID: 1726938287}
  m_Enabled: 1
  m_EditorHideFlags: 0
  m_Script: {fileID: 11500000, guid: b8c0252bcd3a41aeaf172e7d44a72a14, type: 3}
  m_Name: 
  m_EditorClassIdentifier: 
  _current: 10
--- !u!114 &1726938293
MonoBehaviour:
  m_ObjectHideFlags: 0
  m_CorrespondingSourceObject: {fileID: 0}
  m_PrefabInstance: {fileID: 0}
  m_PrefabAsset: {fileID: 0}
  m_GameObject: {fileID: 1726938287}
  m_Enabled: 1
  m_EditorHideFlags: 0
  m_Script: {fileID: 11500000, guid: 20720181970d4b3ab992b50fdcc6042f, type: 3}
  m_Name: 
  m_EditorClassIdentifier: 
  _productInfo: {fileID: 11400000, guid: 7721c75f2c5454847b8dca51afad5d96, type: 2}
  _productPopup: {fileID: 2091487599}
  _productCatalog: {fileID: 11400000, guid: 4ae90141bfb352b4eb699388e34c261f, type: 2}
  _shopPopup: {fileID: 6814740114357892574}
--- !u!1 &1787449566
GameObject:
  m_ObjectHideFlags: 0
  m_CorrespondingSourceObject: {fileID: 0}
  m_PrefabInstance: {fileID: 0}
  m_PrefabAsset: {fileID: 0}
  serializedVersion: 6
  m_Component:
  - component: {fileID: 1787449569}
  - component: {fileID: 1787449568}
  - component: {fileID: 1787449567}
  m_Layer: 0
  m_Name: EventSystem
  m_TagString: Untagged
  m_Icon: {fileID: 0}
  m_NavMeshLayer: 0
  m_StaticEditorFlags: 0
  m_IsActive: 1
--- !u!114 &1787449567
MonoBehaviour:
  m_ObjectHideFlags: 0
  m_CorrespondingSourceObject: {fileID: 0}
  m_PrefabInstance: {fileID: 0}
  m_PrefabAsset: {fileID: 0}
  m_GameObject: {fileID: 1787449566}
  m_Enabled: 1
  m_EditorHideFlags: 0
  m_Script: {fileID: 11500000, guid: 4f231c4fb786f3946a6b90b886c48677, type: 3}
  m_Name: 
  m_EditorClassIdentifier: 
  m_SendPointerHoverToParent: 1
  m_HorizontalAxis: Horizontal
  m_VerticalAxis: Vertical
  m_SubmitButton: Submit
  m_CancelButton: Cancel
  m_InputActionsPerSecond: 10
  m_RepeatDelay: 0.5
  m_ForceModuleActive: 0
--- !u!114 &1787449568
MonoBehaviour:
  m_ObjectHideFlags: 0
  m_CorrespondingSourceObject: {fileID: 0}
  m_PrefabInstance: {fileID: 0}
  m_PrefabAsset: {fileID: 0}
  m_GameObject: {fileID: 1787449566}
  m_Enabled: 1
  m_EditorHideFlags: 0
  m_Script: {fileID: 11500000, guid: 76c392e42b5098c458856cdf6ecaaaa1, type: 3}
  m_Name: 
  m_EditorClassIdentifier: 
  m_FirstSelected: {fileID: 0}
  m_sendNavigationEvents: 1
  m_DragThreshold: 10
--- !u!4 &1787449569
Transform:
  m_ObjectHideFlags: 0
  m_CorrespondingSourceObject: {fileID: 0}
  m_PrefabInstance: {fileID: 0}
  m_PrefabAsset: {fileID: 0}
  m_GameObject: {fileID: 1787449566}
  m_LocalRotation: {x: -0, y: -0, z: -0, w: 1}
  m_LocalPosition: {x: 0, y: 0, z: 0}
  m_LocalScale: {x: 1, y: 1, z: 1}
  m_ConstrainProportionsScale: 0
  m_Children: []
  m_Father: {fileID: 0}
  m_RootOrder: 4
  m_LocalEulerAnglesHint: {x: 0, y: 0, z: 0}
--- !u!1001 &2091487597
PrefabInstance:
  m_ObjectHideFlags: 0
  serializedVersion: 2
  m_Modification:
    m_TransformParent: {fileID: 346419526}
    m_Modifications:
    - target: {fileID: 2871851597504173230, guid: 0bbb700941e6dee4a90fd3f6270d2679, type: 3}
      propertyPath: m_AnchorMax.y
      value: 1
      objectReference: {fileID: 0}
    - target: {fileID: 2871851597504173230, guid: 0bbb700941e6dee4a90fd3f6270d2679, type: 3}
      propertyPath: m_AnchorMin.y
      value: 1
      objectReference: {fileID: 0}
    - target: {fileID: 2871851597504173230, guid: 0bbb700941e6dee4a90fd3f6270d2679, type: 3}
      propertyPath: m_AnchoredPosition.x
      value: 800
      objectReference: {fileID: 0}
    - target: {fileID: 2871851597504173230, guid: 0bbb700941e6dee4a90fd3f6270d2679, type: 3}
      propertyPath: m_AnchoredPosition.y
      value: -51.083332
      objectReference: {fileID: 0}
    - target: {fileID: 3951741004018048383, guid: 0bbb700941e6dee4a90fd3f6270d2679, type: 3}
      propertyPath: m_AnchorMax.y
      value: 1
      objectReference: {fileID: 0}
    - target: {fileID: 3951741004018048383, guid: 0bbb700941e6dee4a90fd3f6270d2679, type: 3}
      propertyPath: m_AnchorMin.y
      value: 1
      objectReference: {fileID: 0}
    - target: {fileID: 3951741004018048383, guid: 0bbb700941e6dee4a90fd3f6270d2679, type: 3}
      propertyPath: m_SizeDelta.x
      value: 75
      objectReference: {fileID: 0}
    - target: {fileID: 3951741004018048383, guid: 0bbb700941e6dee4a90fd3f6270d2679, type: 3}
      propertyPath: m_AnchoredPosition.x
      value: 191.5
      objectReference: {fileID: 0}
    - target: {fileID: 3951741004018048383, guid: 0bbb700941e6dee4a90fd3f6270d2679, type: 3}
      propertyPath: m_AnchoredPosition.y
      value: -76.75
      objectReference: {fileID: 0}
    - target: {fileID: 3951741004945236234, guid: 0bbb700941e6dee4a90fd3f6270d2679, type: 3}
      propertyPath: m_AnchorMax.y
      value: 1
      objectReference: {fileID: 0}
    - target: {fileID: 3951741004945236234, guid: 0bbb700941e6dee4a90fd3f6270d2679, type: 3}
      propertyPath: m_AnchorMin.y
      value: 1
      objectReference: {fileID: 0}
    - target: {fileID: 3951741004945236234, guid: 0bbb700941e6dee4a90fd3f6270d2679, type: 3}
      propertyPath: m_SizeDelta.x
      value: 145.12
      objectReference: {fileID: 0}
    - target: {fileID: 3951741004945236234, guid: 0bbb700941e6dee4a90fd3f6270d2679, type: 3}
      propertyPath: m_AnchoredPosition.x
      value: 305.56
      objectReference: {fileID: 0}
    - target: {fileID: 3951741004945236234, guid: 0bbb700941e6dee4a90fd3f6270d2679, type: 3}
      propertyPath: m_AnchoredPosition.y
      value: -51.75
      objectReference: {fileID: 0}
    - target: {fileID: 3951741005314941449, guid: 0bbb700941e6dee4a90fd3f6270d2679, type: 3}
      propertyPath: m_SizeDelta.x
      value: 378.12
      objectReference: {fileID: 0}
    - target: {fileID: 3951741005482461482, guid: 0bbb700941e6dee4a90fd3f6270d2679, type: 3}
      propertyPath: m_AnchorMax.y
      value: 1
      objectReference: {fileID: 0}
    - target: {fileID: 3951741005482461482, guid: 0bbb700941e6dee4a90fd3f6270d2679, type: 3}
      propertyPath: m_AnchorMin.y
      value: 1
      objectReference: {fileID: 0}
    - target: {fileID: 3951741005482461482, guid: 0bbb700941e6dee4a90fd3f6270d2679, type: 3}
      propertyPath: m_AnchoredPosition.x
      value: 800
      objectReference: {fileID: 0}
    - target: {fileID: 3951741005482461482, guid: 0bbb700941e6dee4a90fd3f6270d2679, type: 3}
      propertyPath: m_AnchoredPosition.y
      value: -798.9166
      objectReference: {fileID: 0}
    - target: {fileID: 3951741005617866257, guid: 0bbb700941e6dee4a90fd3f6270d2679, type: 3}
      propertyPath: m_AnchorMax.y
      value: 1
      objectReference: {fileID: 0}
    - target: {fileID: 3951741005617866257, guid: 0bbb700941e6dee4a90fd3f6270d2679, type: 3}
      propertyPath: m_AnchorMin.y
      value: 1
      objectReference: {fileID: 0}
    - target: {fileID: 3951741005617866257, guid: 0bbb700941e6dee4a90fd3f6270d2679, type: 3}
      propertyPath: m_SizeDelta.x
      value: 150
      objectReference: {fileID: 0}
    - target: {fileID: 3951741005617866257, guid: 0bbb700941e6dee4a90fd3f6270d2679, type: 3}
      propertyPath: m_AnchoredPosition.x
      value: 75
      objectReference: {fileID: 0}
    - target: {fileID: 3951741005617866257, guid: 0bbb700941e6dee4a90fd3f6270d2679, type: 3}
      propertyPath: m_AnchoredPosition.y
      value: -51.75
      objectReference: {fileID: 0}
    - target: {fileID: 7648346340074729545, guid: 0bbb700941e6dee4a90fd3f6270d2679, type: 3}
      propertyPath: m_Name
      value: PopupProduct
      objectReference: {fileID: 0}
    - target: {fileID: 7648346340074729545, guid: 0bbb700941e6dee4a90fd3f6270d2679, type: 3}
      propertyPath: m_IsActive
      value: 0
      objectReference: {fileID: 0}
    - target: {fileID: 7648346340074729550, guid: 0bbb700941e6dee4a90fd3f6270d2679, type: 3}
      propertyPath: m_Pivot.x
      value: 0.5
      objectReference: {fileID: 0}
    - target: {fileID: 7648346340074729550, guid: 0bbb700941e6dee4a90fd3f6270d2679, type: 3}
      propertyPath: m_Pivot.y
      value: 0.5
      objectReference: {fileID: 0}
    - target: {fileID: 7648346340074729550, guid: 0bbb700941e6dee4a90fd3f6270d2679, type: 3}
      propertyPath: m_RootOrder
      value: 0
      objectReference: {fileID: 0}
    - target: {fileID: 7648346340074729550, guid: 0bbb700941e6dee4a90fd3f6270d2679, type: 3}
      propertyPath: m_AnchorMax.x
      value: 1
      objectReference: {fileID: 0}
    - target: {fileID: 7648346340074729550, guid: 0bbb700941e6dee4a90fd3f6270d2679, type: 3}
      propertyPath: m_AnchorMax.y
      value: 1
      objectReference: {fileID: 0}
    - target: {fileID: 7648346340074729550, guid: 0bbb700941e6dee4a90fd3f6270d2679, type: 3}
      propertyPath: m_AnchorMin.x
      value: 0
      objectReference: {fileID: 0}
    - target: {fileID: 7648346340074729550, guid: 0bbb700941e6dee4a90fd3f6270d2679, type: 3}
      propertyPath: m_AnchorMin.y
      value: 0
      objectReference: {fileID: 0}
    - target: {fileID: 7648346340074729550, guid: 0bbb700941e6dee4a90fd3f6270d2679, type: 3}
      propertyPath: m_SizeDelta.x
      value: 0
      objectReference: {fileID: 0}
    - target: {fileID: 7648346340074729550, guid: 0bbb700941e6dee4a90fd3f6270d2679, type: 3}
      propertyPath: m_SizeDelta.y
      value: 0
      objectReference: {fileID: 0}
    - target: {fileID: 7648346340074729550, guid: 0bbb700941e6dee4a90fd3f6270d2679, type: 3}
      propertyPath: m_LocalPosition.x
      value: 0
      objectReference: {fileID: 0}
    - target: {fileID: 7648346340074729550, guid: 0bbb700941e6dee4a90fd3f6270d2679, type: 3}
      propertyPath: m_LocalPosition.y
      value: 0
      objectReference: {fileID: 0}
    - target: {fileID: 7648346340074729550, guid: 0bbb700941e6dee4a90fd3f6270d2679, type: 3}
      propertyPath: m_LocalPosition.z
      value: 0
      objectReference: {fileID: 0}
    - target: {fileID: 7648346340074729550, guid: 0bbb700941e6dee4a90fd3f6270d2679, type: 3}
      propertyPath: m_LocalRotation.w
      value: 1
      objectReference: {fileID: 0}
    - target: {fileID: 7648346340074729550, guid: 0bbb700941e6dee4a90fd3f6270d2679, type: 3}
      propertyPath: m_LocalRotation.x
      value: 0
      objectReference: {fileID: 0}
    - target: {fileID: 7648346340074729550, guid: 0bbb700941e6dee4a90fd3f6270d2679, type: 3}
      propertyPath: m_LocalRotation.y
      value: 0
      objectReference: {fileID: 0}
    - target: {fileID: 7648346340074729550, guid: 0bbb700941e6dee4a90fd3f6270d2679, type: 3}
      propertyPath: m_LocalRotation.z
      value: 0
      objectReference: {fileID: 0}
    - target: {fileID: 7648346340074729550, guid: 0bbb700941e6dee4a90fd3f6270d2679, type: 3}
      propertyPath: m_AnchoredPosition.x
      value: 0
      objectReference: {fileID: 0}
    - target: {fileID: 7648346340074729550, guid: 0bbb700941e6dee4a90fd3f6270d2679, type: 3}
      propertyPath: m_AnchoredPosition.y
      value: 0
      objectReference: {fileID: 0}
    - target: {fileID: 7648346340074729550, guid: 0bbb700941e6dee4a90fd3f6270d2679, type: 3}
      propertyPath: m_LocalEulerAnglesHint.x
      value: 0
      objectReference: {fileID: 0}
    - target: {fileID: 7648346340074729550, guid: 0bbb700941e6dee4a90fd3f6270d2679, type: 3}
      propertyPath: m_LocalEulerAnglesHint.y
      value: 0
      objectReference: {fileID: 0}
    - target: {fileID: 7648346340074729550, guid: 0bbb700941e6dee4a90fd3f6270d2679, type: 3}
      propertyPath: m_LocalEulerAnglesHint.z
      value: 0
      objectReference: {fileID: 0}
    - target: {fileID: 8127350199480658324, guid: 0bbb700941e6dee4a90fd3f6270d2679, type: 3}
      propertyPath: m_AnchorMax.y
      value: 1
      objectReference: {fileID: 0}
    - target: {fileID: 8127350199480658324, guid: 0bbb700941e6dee4a90fd3f6270d2679, type: 3}
      propertyPath: m_AnchorMin.y
      value: 1
      objectReference: {fileID: 0}
    - target: {fileID: 8127350199480658324, guid: 0bbb700941e6dee4a90fd3f6270d2679, type: 3}
      propertyPath: m_AnchoredPosition.x
      value: 800
      objectReference: {fileID: 0}
    - target: {fileID: 8127350199480658324, guid: 0bbb700941e6dee4a90fd3f6270d2679, type: 3}
      propertyPath: m_AnchoredPosition.y
      value: -373.25
      objectReference: {fileID: 0}
    m_RemovedComponents: []
  m_SourcePrefab: {fileID: 100100000, guid: 0bbb700941e6dee4a90fd3f6270d2679, type: 3}
--- !u!224 &2091487598 stripped
RectTransform:
  m_CorrespondingSourceObject: {fileID: 7648346340074729550, guid: 0bbb700941e6dee4a90fd3f6270d2679, type: 3}
  m_PrefabInstance: {fileID: 2091487597}
  m_PrefabAsset: {fileID: 0}
--- !u!114 &2091487599 stripped
MonoBehaviour:
  m_CorrespondingSourceObject: {fileID: 1859957442203636936, guid: 0bbb700941e6dee4a90fd3f6270d2679, type: 3}
  m_PrefabInstance: {fileID: 2091487597}
  m_PrefabAsset: {fileID: 0}
  m_GameObject: {fileID: 0}
  m_Enabled: 1
  m_EditorHideFlags: 0
  m_Script: {fileID: 11500000, guid: 3dc3e02a8c0d430c915733e97d9f777c, type: 3}
  m_Name: 
  m_EditorClassIdentifier: 
--- !u!224 &2099637021 stripped
RectTransform:
  m_CorrespondingSourceObject: {fileID: 5577689466070816078, guid: e239843313816374ab29a63af895b4f5, type: 3}
  m_PrefabInstance: {fileID: 359113467}
  m_PrefabAsset: {fileID: 0}
--- !u!114 &2099637024 stripped
MonoBehaviour:
  m_CorrespondingSourceObject: {fileID: 8514365132210893952, guid: e239843313816374ab29a63af895b4f5, type: 3}
  m_PrefabInstance: {fileID: 359113467}
  m_PrefabAsset: {fileID: 0}
  m_GameObject: {fileID: 0}
  m_Enabled: 1
  m_EditorHideFlags: 0
  m_Script: {fileID: 11500000, guid: 889d910bc7644f1298ad6961208d066d, type: 3}
  m_Name: 
  m_EditorClassIdentifier: 
--- !u!1001 &6814740114357892572
PrefabInstance:
  m_ObjectHideFlags: 0
  serializedVersion: 2
  m_Modification:
    m_TransformParent: {fileID: 346419526}
    m_Modifications:
    - target: {fileID: 2859253162906034843, guid: 31ca90a4537a2884faba40f72bfde543, type: 3}
      propertyPath: m_Name
      value: PopupMarket
      objectReference: {fileID: 0}
    - target: {fileID: 2859253162906034843, guid: 31ca90a4537a2884faba40f72bfde543, type: 3}
      propertyPath: m_IsActive
      value: 0
      objectReference: {fileID: 0}
    - target: {fileID: 2859253162906034844, guid: 31ca90a4537a2884faba40f72bfde543, type: 3}
      propertyPath: m_Pivot.x
      value: 0.5
      objectReference: {fileID: 0}
    - target: {fileID: 2859253162906034844, guid: 31ca90a4537a2884faba40f72bfde543, type: 3}
      propertyPath: m_Pivot.y
      value: 0.5
      objectReference: {fileID: 0}
    - target: {fileID: 2859253162906034844, guid: 31ca90a4537a2884faba40f72bfde543, type: 3}
      propertyPath: m_RootOrder
      value: 1
      objectReference: {fileID: 0}
    - target: {fileID: 2859253162906034844, guid: 31ca90a4537a2884faba40f72bfde543, type: 3}
      propertyPath: m_AnchorMax.x
      value: 1
      objectReference: {fileID: 0}
    - target: {fileID: 2859253162906034844, guid: 31ca90a4537a2884faba40f72bfde543, type: 3}
      propertyPath: m_AnchorMax.y
      value: 1
      objectReference: {fileID: 0}
    - target: {fileID: 2859253162906034844, guid: 31ca90a4537a2884faba40f72bfde543, type: 3}
      propertyPath: m_AnchorMin.x
      value: 0
      objectReference: {fileID: 0}
    - target: {fileID: 2859253162906034844, guid: 31ca90a4537a2884faba40f72bfde543, type: 3}
      propertyPath: m_AnchorMin.y
      value: 0
      objectReference: {fileID: 0}
    - target: {fileID: 2859253162906034844, guid: 31ca90a4537a2884faba40f72bfde543, type: 3}
      propertyPath: m_SizeDelta.x
      value: 0
      objectReference: {fileID: 0}
    - target: {fileID: 2859253162906034844, guid: 31ca90a4537a2884faba40f72bfde543, type: 3}
      propertyPath: m_SizeDelta.y
      value: 0
      objectReference: {fileID: 0}
    - target: {fileID: 2859253162906034844, guid: 31ca90a4537a2884faba40f72bfde543, type: 3}
      propertyPath: m_LocalPosition.x
      value: 0
      objectReference: {fileID: 0}
    - target: {fileID: 2859253162906034844, guid: 31ca90a4537a2884faba40f72bfde543, type: 3}
      propertyPath: m_LocalPosition.y
      value: 0
      objectReference: {fileID: 0}
    - target: {fileID: 2859253162906034844, guid: 31ca90a4537a2884faba40f72bfde543, type: 3}
      propertyPath: m_LocalPosition.z
      value: 0
      objectReference: {fileID: 0}
    - target: {fileID: 2859253162906034844, guid: 31ca90a4537a2884faba40f72bfde543, type: 3}
      propertyPath: m_LocalRotation.w
      value: 1
      objectReference: {fileID: 0}
    - target: {fileID: 2859253162906034844, guid: 31ca90a4537a2884faba40f72bfde543, type: 3}
      propertyPath: m_LocalRotation.x
      value: 0
      objectReference: {fileID: 0}
    - target: {fileID: 2859253162906034844, guid: 31ca90a4537a2884faba40f72bfde543, type: 3}
      propertyPath: m_LocalRotation.y
      value: 0
      objectReference: {fileID: 0}
    - target: {fileID: 2859253162906034844, guid: 31ca90a4537a2884faba40f72bfde543, type: 3}
      propertyPath: m_LocalRotation.z
      value: 0
      objectReference: {fileID: 0}
    - target: {fileID: 2859253162906034844, guid: 31ca90a4537a2884faba40f72bfde543, type: 3}
      propertyPath: m_AnchoredPosition.x
      value: 0
      objectReference: {fileID: 0}
    - target: {fileID: 2859253162906034844, guid: 31ca90a4537a2884faba40f72bfde543, type: 3}
      propertyPath: m_AnchoredPosition.y
      value: 0
      objectReference: {fileID: 0}
    - target: {fileID: 2859253162906034844, guid: 31ca90a4537a2884faba40f72bfde543, type: 3}
      propertyPath: m_LocalEulerAnglesHint.x
      value: 0
      objectReference: {fileID: 0}
    - target: {fileID: 2859253162906034844, guid: 31ca90a4537a2884faba40f72bfde543, type: 3}
      propertyPath: m_LocalEulerAnglesHint.y
      value: 0
      objectReference: {fileID: 0}
    - target: {fileID: 2859253162906034844, guid: 31ca90a4537a2884faba40f72bfde543, type: 3}
      propertyPath: m_LocalEulerAnglesHint.z
      value: 0
      objectReference: {fileID: 0}
    - target: {fileID: 2859253163435521789, guid: 31ca90a4537a2884faba40f72bfde543, type: 3}
      propertyPath: m_SizeDelta.y
      value: -627.23914
      objectReference: {fileID: 0}
    m_RemovedComponents: []
  m_SourcePrefab: {fileID: 100100000, guid: 31ca90a4537a2884faba40f72bfde543, type: 3}
--- !u!224 &6814740114357892573 stripped
RectTransform:
  m_CorrespondingSourceObject: {fileID: 2859253162906034844, guid: 31ca90a4537a2884faba40f72bfde543, type: 3}
  m_PrefabInstance: {fileID: 6814740114357892572}
  m_PrefabAsset: {fileID: 0}
--- !u!114 &6814740114357892574 stripped
MonoBehaviour:
  m_CorrespondingSourceObject: {fileID: 6032963021932511453, guid: 31ca90a4537a2884faba40f72bfde543, type: 3}
  m_PrefabInstance: {fileID: 6814740114357892572}
  m_PrefabAsset: {fileID: 0}
  m_GameObject: {fileID: 0}
  m_Enabled: 1
  m_EditorHideFlags: 0
  m_Script: {fileID: 11500000, guid: c091a40d0043432caf2a25b7776ec7db, type: 3}
  m_Name: 
  m_EditorClassIdentifier: 
